{
    "title":"控制菜单",
    "item":{
        "add":{
            "icon":1,
            "name":"添加属性",
            "absolute":null,
            "url":null,
            "set":null,
            "page":"attribute",
            "action":"add",
            "qus":null
        },
        "modify":{
            "icon":3,
            "name":"修改属性",
            "page":"attribute",
            "action":"modify"
        },
        "delete":{
            "icon":2,
            "name":"删除",
            "absolute":null,
            "url":null,
            "set":null,
            "page":"attribute",
            "action":"delete",
            "qus":null
        }
    }
}